{
    "choose_device_brand_1": { "string": "Samsung", "font": "SamsungSharpSans-Bold", "size": 14, "color": "#000000"},
    "choose_device_brand_2": { "string": "Apple", "font": "SamsungSharpSans-Bold", "size": 14, "color": "#000000"},
    "choose_device_brand_3": { "string": "Google", "font": "SamsungSharpSans-Bold", "size": 14, "color": "#000000"},
    "choose_device_brand_4": { "string": "LG", "font": "SamsungSharpSans-Bold", "size": 14, "color": "#000000"},
    "choose_device_brand_5": { "string": "OnePlus", "font": "SamsungSharpSans-Bold", "size": 14, "color": "#000000"}
}
